Análisis Multivariado en Finanzas
…
#Load the gapminder package

Gapminder tracks economic and social indicators like life expectancy
and the GDP per capita of countries over time.

# Loading dplyr library
library(dplyr)
# Loading gapminder library
library(gapminder)
# Look at the gapminder dataset
gapminder

## # A tibble: 1,704 × 6
##    country     continent  year lifeExp      pop gdpPercap
##    <fct>       <fct>     <int>   <dbl>    <int>     <dbl>
##  1 Afghanistan Asia       1952    28.8  8425333      779.
##  2 Afghanistan Asia       1957    30.3  9240934      821.
##  3 Afghanistan Asia       1962    32.0 10267083      853.
##  4 Afghanistan Asia       1967    34.0 11537966      836.
##  5 Afghanistan Asia       1972    36.1 13079460      740.
##  6 Afghanistan Asia       1977    38.4 14880372      786.
##  7 Afghanistan Asia       1982    39.9 12881816      978.
##  8 Afghanistan Asia       1987    40.8 13867957      852.
##  9 Afghanistan Asia       1992    41.7 16317921      649.
## 10 Afghanistan Asia       1997    41.8 22227415      635.
## # … with 1,694 more rows
…
Filtering for one year

Every time you apply a verb, you’ll use a pipe (%>%). A pipe
is a percent, greater than, percent.It says “take whatever is before it,
and feed it into the next step.”

After the pipe, we can perform our first verb. We have data on many
years, but we’d like to filter for just one. Let’s say we filter for
2007, the most recent data in the dataset. Here, we’re saying we want to
filter for only the observations from 2007.

gapminder %>% 
  filter(year == 2007)

## # A tibble: 142 × 6
##    country     continent  year lifeExp       pop gdpPercap
##    <fct>       <fct>     <int>   <dbl>     <int>     <dbl>
##  1 Afghanistan Asia       2007    43.8  31889923      975.
##  2 Albania     Europe     2007    76.4   3600523     5937.
##  3 Algeria     Africa     2007    72.3  33333216     6223.
##  4 Angola      Africa     2007    42.7  12420476     4797.
##  5 Argentina   Americas   2007    75.3  40301927    12779.
##  6 Australia   Oceania    2007    81.2  20434176    34435.
##  7 Austria     Europe     2007    79.8   8199783    36126.
##  8 Bahrain     Asia       2007    75.6    708573    29796.
##  9 Bangladesh  Asia       2007    64.1 150448339     1391.
## 10 Belgium     Europe     2007    79.4  10392226    33693.
## # … with 132 more rows
…
Exercise

Filtering for one year.

The filter verb extracts particular observations based on a
condition. In this exercise you’ll filter for observations from a
particular year.

# Filter the gapminder dataset for the year 1957
gapminder %>%
  filter(year == 1957)

## # A tibble: 142 × 6
##    country     continent  year lifeExp      pop gdpPercap
##    <fct>       <fct>     <int>   <dbl>    <int>     <dbl>
##  1 Afghanistan Asia       1957    30.3  9240934      821.
##  2 Albania     Europe     1957    59.3  1476505     1942.
##  3 Algeria     Africa     1957    45.7 10270856     3014.
##  4 Angola      Africa     1957    32.0  4561361     3828.
##  5 Argentina   Americas   1957    64.4 19610538     6857.
##  6 Australia   Oceania    1957    70.3  9712569    10950.
##  7 Austria     Europe     1957    67.5  6965860     8843.
##  8 Bahrain     Asia       1957    53.8   138655    11636.
##  9 Bangladesh  Asia       1957    39.3 51365468      662.
## 10 Belgium     Europe     1957    69.2  8989111     9715.
## # … with 132 more rows
…
Sorting with Arrange Verb

The arrange verb is used after the pipe operator. You would type
gapminder, then the pipe operator “%>%” and then arrange(). Within
those parentheses, you tell it what column you want to arrange by.

In the following example the observations are sorted in ascending
order, with the lowest GDP per capita appearing first.

# Sorting in ascending by gdpPercap using Arrange Verb
gapminder %>% 
  arrange(gdpPercap)

## # A tibble: 1,704 × 6
##    country          continent  year lifeExp      pop gdpPercap
##    <fct>            <fct>     <int>   <dbl>    <int>     <dbl>
##  1 Congo, Dem. Rep. Africa     2002    45.0 55379852      241.
##  2 Congo, Dem. Rep. Africa     2007    46.5 64606759      278.
##  3 Lesotho          Africa     1952    42.1   748747      299.
##  4 Guinea-Bissau    Africa     1952    32.5   580653      300.
##  5 Congo, Dem. Rep. Africa     1997    42.6 47798986      312.
##  6 Eritrea          Africa     1952    35.9  1438760      329.
##  7 Myanmar          Asia       1952    36.3 20092996      331 
##  8 Lesotho          Africa     1957    45.0   813338      336.
##  9 Burundi          Africa     1952    39.0  2445618      339.
## 10 Eritrea          Africa     1957    38.0  1542611      344.
## # … with 1,694 more rows
…
Just like with filter, the gapminder object itself is unchanged:
arrange is just giving you a new, sorted dataset.

Sorting in Descending Order

Arrange also lets you sort in descending order. To do that, you’d put
the desc() for descending- around the variable you’re sorting by.

# Sorting in descending by gdpPercap using Arrange Verb
gapminder %>% 
  arrange(desc(gdpPercap))

## # A tibble: 1,704 × 6
##    country   continent  year lifeExp     pop gdpPercap
##    <fct>     <fct>     <int>   <dbl>   <int>     <dbl>
##  1 Kuwait    Asia       1957    58.0  212846   113523.
##  2 Kuwait    Asia       1972    67.7  841934   109348.
##  3 Kuwait    Asia       1952    55.6  160000   108382.
##  4 Kuwait    Asia       1962    60.5  358266    95458.
##  5 Kuwait    Asia       1967    64.6  575003    80895.
##  6 Kuwait    Asia       1977    69.3 1140357    59265.
##  7 Norway    Europe     2007    80.2 4627926    49357.
##  8 Kuwait    Asia       2007    77.6 2505559    47307.
##  9 Singapore Asia       2007    80.0 4553009    47143.
## 10 Norway    Europe     2002    79.0 4535591    44684.
## # … with 1,694 more rows
…
To do that, you can combine the two verbs you’ve already learned:
filter, and arrange. You start with the gapminder dataset, then a pipe
to give the dataset to filter. Then you specify that you want to filter
for year equals equals 2007. Then you use another pipe. This takes the
result of the filter, and gives it to arrange. You specify that you want
to sort in descending order of GDP per capita.

# Filtering for year 2007 then arranging by gdpPercap
gapminder %>% 
  filter(year == 2007) %>%
  arrange(desc(gdpPercap))

## # A tibble: 142 × 6
##    country          continent  year lifeExp       pop gdpPercap
##    <fct>            <fct>     <int>   <dbl>     <int>     <dbl>
##  1 Norway           Europe     2007    80.2   4627926    49357.
##  2 Kuwait           Asia       2007    77.6   2505559    47307.
##  3 Singapore        Asia       2007    80.0   4553009    47143.
##  4 United States    Americas   2007    78.2 301139947    42952.
##  5 Ireland          Europe     2007    78.9   4109086    40676.
##  6 Hong Kong, China Asia       2007    82.2   6980412    39725.
##  7 Switzerland      Europe     2007    81.7   7554661    37506.
##  8 Netherlands      Europe     2007    79.8  16570613    36798.
##  9 Canada           Americas   2007    80.7  33390141    36319.
## 10 Iceland          Europe     2007    81.8    301931    36181.
## # … with 132 more rows

# Filtering for year 2007 and Europe then arranging by gdpPercap
gapminder %>% 
  filter(year == 2007,
         continent == "Europe") %>%
  arrange(desc(gdpPercap))

## # A tibble: 30 × 6
##    country     continent  year lifeExp      pop gdpPercap
##    <fct>       <fct>     <int>   <dbl>    <int>     <dbl>
##  1 Norway      Europe     2007    80.2  4627926    49357.
##  2 Ireland     Europe     2007    78.9  4109086    40676.
##  3 Switzerland Europe     2007    81.7  7554661    37506.
##  4 Netherlands Europe     2007    79.8 16570613    36798.
##  5 Iceland     Europe     2007    81.8   301931    36181.
##  6 Austria     Europe     2007    79.8  8199783    36126.
##  7 Denmark     Europe     2007    78.3  5468120    35278.
##  8 Sweden      Europe     2007    80.9  9031088    33860.
##  9 Belgium     Europe     2007    79.4 10392226    33693.
## 10 Finland     Europe     2007    79.3  5238460    33207.
## # … with 20 more rows
Exercise

Arranging observations by life expectancy

You use arrange() to sort observations in ascending or descending
order of a particular variable. In this case, you’ll sort the dataset
based on the lifeExp variable.

#Sort in ascending order of lifeExp

# Sort in ascending order of lifeExp
gapminder %>% 
  arrange(lifeExp)

## # A tibble: 1,704 × 6
##    country      continent  year lifeExp     pop gdpPercap
##    <fct>        <fct>     <int>   <dbl>   <int>     <dbl>
##  1 Rwanda       Africa     1992    23.6 7290203      737.
##  2 Afghanistan  Asia       1952    28.8 8425333      779.
##  3 Gambia       Africa     1952    30    284320      485.
##  4 Angola       Africa     1952    30.0 4232095     3521.
##  5 Sierra Leone Africa     1952    30.3 2143249      880.
##  6 Afghanistan  Asia       1957    30.3 9240934      821.
##  7 Cambodia     Asia       1977    31.2 6978607      525.
##  8 Mozambique   Africa     1952    31.3 6446316      469.
##  9 Sierra Leone Africa     1957    31.6 2295678     1004.
## 10 Burkina Faso Africa     1952    32.0 4469979      543.
## # … with 1,694 more rows

#Sort in descending order of lifeExp

# Sort in descending order of lifeExp
gapminder %>%
  arrange(desc(lifeExp))

## # A tibble: 1,704 × 6
##    country          continent  year lifeExp       pop gdpPercap
##    <fct>            <fct>     <int>   <dbl>     <int>     <dbl>
##  1 Japan            Asia       2007    82.6 127467972    31656.
##  2 Hong Kong, China Asia       2007    82.2   6980412    39725.
##  3 Japan            Asia       2002    82   127065841    28605.
##  4 Iceland          Europe     2007    81.8    301931    36181.
##  5 Switzerland      Europe     2007    81.7   7554661    37506.
##  6 Hong Kong, China Asia       2002    81.5   6762476    30209.
##  7 Australia        Oceania    2007    81.2  20434176    34435.
##  8 Spain            Europe     2007    80.9  40448191    28821.
##  9 Sweden           Europe     2007    80.9   9031088    33860.
## 10 Israel           Asia       2007    80.7   6426679    25523.
## # … with 1,694 more rows
…
You’ll often need to use the pipe operator (%>%) to combine
multiple dplyr verbs in a row. In this case, you’ll combine a filter()
with an arrange() to find the highest population countries in a
particular year.

#Filter for the year 1957, then arrange in descending order of
population

# Filter for the year 1957, then arrange in descending order of population
gapminder %>% 
  filter(year == 1957) %>%
  arrange(desc(pop))

## # A tibble: 142 × 6
##    country        continent  year lifeExp       pop gdpPercap
##    <fct>          <fct>     <int>   <dbl>     <int>     <dbl>
##  1 China          Asia       1957    50.5 637408000      576.
##  2 India          Asia       1957    40.2 409000000      590.
##  3 United States  Americas   1957    69.5 171984000    14847.
##  4 Japan          Asia       1957    65.5  91563009     4318.
##  5 Indonesia      Asia       1957    39.9  90124000      859.
##  6 Germany        Europe     1957    69.1  71019069    10188.
##  7 Brazil         Americas   1957    53.3  65551171     2487.
##  8 United Kingdom Europe     1957    70.4  51430000    11283.
##  9 Bangladesh     Asia       1957    39.3  51365468      662.
## 10 Italy          Europe     1957    67.8  49182000     6249.
## # … with 132 more rows
…
gapminder %>%
  mutate(pop = pop / 1000000)

## # A tibble: 1,704 × 6
##    country     continent  year lifeExp   pop gdpPercap
##    <fct>       <fct>     <int>   <dbl> <dbl>     <dbl>
##  1 Afghanistan Asia       1952    28.8  8.43      779.
##  2 Afghanistan Asia       1957    30.3  9.24      821.
##  3 Afghanistan Asia       1962    32.0 10.3       853.
##  4 Afghanistan Asia       1967    34.0 11.5       836.
##  5 Afghanistan Asia       1972    36.1 13.1       740.
##  6 Afghanistan Asia       1977    38.4 14.9       786.
##  7 Afghanistan Asia       1982    39.9 12.9       978.
##  8 Afghanistan Asia       1987    40.8 13.9       852.
##  9 Afghanistan Asia       1992    41.7 16.3       649.
## 10 Afghanistan Asia       1997    41.8 22.2       635.
## # … with 1,694 more rows

Using mutate to add a new variable.

Another application of mutate verb is usefull if you may want to add
a new variable into the data frame. let’s suppose that you currently
have the GDP per capita: that’s the Gross Domestic Product (GDP) of the
country divided by the current population. But in your analysis, you may
want to know the total GDP. You’d have to multiply the population by the
GDP per capita to find this. By appying the following mutate
instruction

gapminder %>%
  mutate(gdp = gdpPercap * pop)

## # A tibble: 1,704 × 7
##    country     continent  year lifeExp      pop gdpPercap          gdp
##    <fct>       <fct>     <int>   <dbl>    <int>     <dbl>        <dbl>
##  1 Afghanistan Asia       1952    28.8  8425333      779.  6567086330.
##  2 Afghanistan Asia       1957    30.3  9240934      821.  7585448670.
##  3 Afghanistan Asia       1962    32.0 10267083      853.  8758855797.
##  4 Afghanistan Asia       1967    34.0 11537966      836.  9648014150.
##  5 Afghanistan Asia       1972    36.1 13079460      740.  9678553274.
##  6 Afghanistan Asia       1977    38.4 14880372      786. 11697659231.
##  7 Afghanistan Asia       1982    39.9 12881816      978. 12598563401.
##  8 Afghanistan Asia       1987    40.8 13867957      852. 11820990309.
##  9 Afghanistan Asia       1992    41.7 16317921      649. 10595901589.
## 10 Afghanistan Asia       1997    41.8 22227415      635. 14121995875.
## # … with 1,694 more rows
…
The verbs reviewed so far, can be combine in order to obtain detail
data form a dataset. Suppose we wanted to know the countries with the
highest total GDP in the year 2007. We would do this in three steps-
create the column, filter for 2007, then sort. We use mutate to create
the total GDP column. Then we’d use filter to restrict our analysis to
only the year 2007. Then we’d use arrange to sort the data in descending
order of our new GDP variable. This gives us the answer we’re looking
for.

gapminder %>%
  mutate(gdp = gdpPercap * pop) %>%
  filter(year == 2007) %>%
  arrange(desc(gdp))

## # A tibble: 142 × 7
##    country        continent  year lifeExp        pop gdpPercap     gdp
##    <fct>          <fct>     <int>   <dbl>      <int>     <dbl>   <dbl>
##  1 United States  Americas   2007    78.2  301139947    42952. 1.29e13
##  2 China          Asia       2007    73.0 1318683096     4959. 6.54e12
##  3 Japan          Asia       2007    82.6  127467972    31656. 4.04e12
##  4 India          Asia       2007    64.7 1110396331     2452. 2.72e12
##  5 Germany        Europe     2007    79.4   82400996    32170. 2.65e12
##  6 United Kingdom Europe     2007    79.4   60776238    33203. 2.02e12
##  7 France         Europe     2007    80.7   61083916    30470. 1.86e12
##  8 Brazil         Americas   2007    72.4  190010647     9066. 1.72e12
##  9 Italy          Europe     2007    80.5   58147733    28570. 1.66e12
## 10 Mexico         Americas   2007    76.2  108700891    11978. 1.30e12
## # … with 132 more rows
…
Use mutate() to change the existing lifeExp column, by multiplying it
by 12: 12 * lifeExp. Use mutate() to add a new column, called
lifeExpMonths, calculated as 12 * lifeExp.

library(gapminder)
library(dplyr)

# Use mutate to change lifeExp to be in months
gapminder %>%
  mutate(lifeExp = lifeExp * 12)

## # A tibble: 1,704 × 6
##    country     continent  year lifeExp      pop gdpPercap
##    <fct>       <fct>     <int>   <dbl>    <int>     <dbl>
##  1 Afghanistan Asia       1952    346.  8425333      779.
##  2 Afghanistan Asia       1957    364.  9240934      821.
##  3 Afghanistan Asia       1962    384. 10267083      853.
##  4 Afghanistan Asia       1967    408. 11537966      836.
##  5 Afghanistan Asia       1972    433. 13079460      740.
##  6 Afghanistan Asia       1977    461. 14880372      786.
##  7 Afghanistan Asia       1982    478. 12881816      978.
##  8 Afghanistan Asia       1987    490. 13867957      852.
##  9 Afghanistan Asia       1992    500. 16317921      649.
## 10 Afghanistan Asia       1997    501. 22227415      635.
## # … with 1,694 more rows

# Use mutate to create a new column called lifeExpMonths
gapminder %>%
  mutate(lifeExpMonths = lifeExp * 12)

## # A tibble: 1,704 × 7
##    country     continent  year lifeExp      pop gdpPercap lifeExpMonths
##    <fct>       <fct>     <int>   <dbl>    <int>     <dbl>         <dbl>
##  1 Afghanistan Asia       1952    28.8  8425333      779.          346.
##  2 Afghanistan Asia       1957    30.3  9240934      821.          364.
##  3 Afghanistan Asia       1962    32.0 10267083      853.          384.
##  4 Afghanistan Asia       1967    34.0 11537966      836.          408.
##  5 Afghanistan Asia       1972    36.1 13079460      740.          433.
##  6 Afghanistan Asia       1977    38.4 14880372      786.          461.
##  7 Afghanistan Asia       1982    39.9 12881816      978.          478.
##  8 Afghanistan Asia       1987    40.8 13867957      852.          490.
##  9 Afghanistan Asia       1992    41.7 16317921      649.          500.
## 10 Afghanistan Asia       1997    41.8 22227415      635.          501.
## # … with 1,694 more rows
…
Filter, mutate, and arrange the gapminder dataset

library(gapminder)
library(dplyr)

# Filter, mutate, and arrange the gapminder dataset
gapminder %>% 
    filter(year==2007) %>%
    mutate(lifeExpMonths = 12 * lifeExp) %>%
    arrange(desc(lifeExpMonths))

## # A tibble: 142 × 7
##    country          continent  year lifeExp       pop gdpPercap lifeExpMonths
##    <fct>            <fct>     <int>   <dbl>     <int>     <dbl>         <dbl>
##  1 Japan            Asia       2007    82.6 127467972    31656.          991.
##  2 Hong Kong, China Asia       2007    82.2   6980412    39725.          986.
##  3 Iceland          Europe     2007    81.8    301931    36181.          981.
##  4 Switzerland      Europe     2007    81.7   7554661    37506.          980.
##  5 Australia        Oceania    2007    81.2  20434176    34435.          975.
##  6 Spain            Europe     2007    80.9  40448191    28821.          971.
##  7 Sweden           Europe     2007    80.9   9031088    33860.          971.
##  8 Israel           Asia       2007    80.7   6426679    25523.          969.
##  9 France           Europe     2007    80.7  61083916    30470.          968.
## 10 Canada           Americas   2007    80.7  33390141    36319.          968.
## # … with 132 more rows
